{
  "openapi": "3.0.3",
  "info": {
    "title": "RPS GAME API",
    "description": "This is a  RPS Game Server based on the OpenAPI 3.0 specification. \nYou can now help us improve the API whether it's by making changes to the definition itself or to the code.\nThat way, with time, we can improve the API in general, and expose some of the new features in OAS3.",
    "version": "1.0"
  },
  "servers": [
    {
      "url": "http://localhost:3000"
    }
  ],
  "paths": {
    "/users/signup": {
      "post": {
        "tags": [
          "users"
        ],
        "summary": "API for users registration",
        "description": "Signup users Registration",
        "requestBody": {
          "content": {
            "application/json": {
              "schema": {
                "type": "object",
                "properties": {
                  "email": {
                    "type": "string",
                    "example": "example@gmail.com"
                  },
                  "username": {
                    "type": "string",
                    "example": "username1"
                  },
                  "password": {
                    "type": "string",
                    "example": "12345678"
                  }
                }
              }
            }
          }
        },
        "responses": {
          "200": {
            "description": "success to signup a new user"
          },
          "400": {
            "description": "failed to signup a new user"
          }
        }
      }
    },
    "/users/login": {
      "post": {
        "tags": [
          "users"
        ],
        "summary": "API for users login",
        "description": "login users to joining the game",
        "requestBody": {
          "content": {
            "application/json": {
              "schema": {
                "type": "object",
                "properties": {
                  "username": {
                    "type": "string",
                    "example": "username1"
                  },
                  "password": {
                    "type": "string",
                    "example": "12345678"
                  }
                }
              }
            }
          }
        },
        "responses": {
          "200": {
            "description": " login successed ",
            "content": {
              "application/json": {
                "schema": {
                  "type": "object",
                  "example": "the token is here"
                }
              }
            }
          },
          "400": {
            "description": "failed to login "
          }
        }
      }
    },
    "/users/detail/{user_id}": {
      "get": {
        "tags": [
          "users"
        ],
        "summary": "get users data by id",
        "parameters": [
          {
            "name": "user_id",
            "in": "path",
            "required": true,
            "schema": {
              "type": "string"
            }
          }
        ],
        "security": [
          {
            "bearerAuth": []
          }
        ],
        "responses": {
          "200": {
            "description": "successed get  data"
          },
          "404": {
            "description": "data not found"
          }
        }
      },
      "put": {
        "tags": [
          "users"
        ],
        "summary": "update when user_id exist ",
        "description": "update users when user_id exist",
        "parameters": [
          {
            "name": "user_id",
            "in": "path",
            "description": "input your user_id",
            "required": true,
            "schema": {
              "type": "string"
            }
          }
        ],
        "requestBody": {
          "content": {
            "application/json": {
              "schema": {
                "type": "object",
                "properties": {
                  "firstname": {
                    "type": "string",
                    "example": "paijo"
                  },
                  "lastname": {
                    "type": "string",
                    "example": "suparman"
                  },
                  "fullname": {
                    "type": "string",
                    "example": "paijo suparman"
                  },
                  "address": {
                    "type": "string",
                    "example": "jl street"
                  },
                  "user_id": {
                    "type": "integer",
                    "example": 11
                  }
                }
              }
            }
          }
        },
        "responses": {
          "200": {
            "description": "user updated"
          },
          "404": {
            "description": "updated failed"
          }
        },
        "security": [
          {
            "bearerAuth": []
          }
        ]
      }
    },
    "/users/": {
      "get": {
        "tags": [
          "users"
        ],
        "summary": "get all users data ",
        "description": "get all users data from db",
        "responses": {
          "200": {
            "description": "successed get  data",
            "content": {
              "application/json": {
                "schema": {
                  "type": "object"
                }
              }
            }
          },
          "404": {
            "description": "failed to get data"
          }
        },
        "security": [
          {
            "bearerAuth": []
          }
        ]
      }
    },
    "/games/": {
      "get": {
        "tags": [
          "games"
        ],
        "summary": "get all users data ",
        "description": "get all users data from db",
        "responses": {
          "200": {
            "description": "successed get  game histories",
            "content": {
              "application/json": {
                "schema": {
                  "type": "object"
                }
              }
            }
          },
          "404": {
            "description": "failed to get game histories"
          }
        },
        "security": [
          {
            "bearerAuth": []
          }
        ]
      }
    },
    "/games/signup": {
      "post": {
        "tags": [
          "games"
        ],
        "summary": "API for record new games histories",
        "description": "record new game history to db usergame history",
        "requestBody": {
          "content": {
            "application/json": {
              "schema": {
                "type": "object",
                "properties": {
                  "opponent": {
                    "type": "string",
                    "example": "VS PLAYER2"
                  },
                  "result": {
                    "type": "string",
                    "example": "WIN"
                  },
                  "user_id": {
                    "type": "integer",
                    "example": 8
                  }
                }
              }
            }
          }
        },
        "responses": {
          "200": {
            "description": "success to signup a new user"
          },
          "400": {
            "description": "failed to signup a new user"
          }
        },
        "security": [
          {
            "bearerAuth": []
          }
        ]
      }
    },
    "/games/rooms/": {
      "post": {
        "tags": [
          "games"
        ],
        "summary": "API for create new room to play the games",
        "description": "create new record for roomGame db",
        "requestBody": {
          "content": {
            "application/json": {
              "schema": {
                "type": "object",
                "properties": {
                  "player1Choice": {
                    "type": "string",
                    "example": "Rock"
                  },
                  "roomName": {
                    "type": "string",
                    "example": "RoomF"
                  },
                  "idPlayer1": {
                    "type": "integer",
                    "example": 18
                  }
                }
              }
            }
          }
        },
        "responses": {
          "200": {
            "description": "success to created new room"
          },
          "400": {
            "description": "failed to created new rooms"
          }
        },
        "security": [
          {
            "bearerAuth": []
          }
        ]
      },
      "get": {
        "tags": [
          "games"
        ],
        "summary": "get all rooms data ",
        "description": "get all games room data from db roomGame",
        "responses": {
          "200": {
            "description": "successed get  data",
            "content": {
              "application/json": {
                "schema": {
                  "type": "object"
                }
              }
            }
          },
          "404": {
            "description": "failed to get data"
          }
        },
        "security": [
          {
            "bearerAuth": []
          }
        ]
      }
    },
    "/games/rooms/{id}": {
      "get": {
        "tags": [
          "games"
        ],
        "summary": "get all games rooms data",
        "parameters": [
          {
            "name": "id",
            "in": "path",
            "required": true,
            "schema": {
              "type": "string"
            }
          }
        ],
        "security": [
          {
            "bearerAuth": []
          }
        ],
        "responses": {
          "200": {
            "description": "successed get  data"
          },
          "404": {
            "description": "data not found"
          }
        }
      },
      "put": {
        "tags": [
          "games"
        ],
        "summary": "update when user_id exist ",
        "description": "update users when user_id exist",
        "parameters": [
          {
            "name": "id",
            "in": "path",
            "description": "input your user_id",
            "required": true,
            "schema": {
              "type": "string"
            }
          }
        ],
        "requestBody": {
          "content": {
            "application/json": {
              "schema": {
                "type": "object",
                "properties": {
                  "player2Choice": {
                    "type": "string",
                    "example": "Paper"
                  },
                  "result": {
                    "type": "string",
                    "example": "WIN"
                  },
                  "idPlayer2": {
                    "type": "integer",
                    "example": 28
                  },
                  "opponent": {
                    "type": "string",
                    "example": "VS PLAYER 2"
                  },
                  "user_id": {
                    "type": "integer",
                    "example": 11
                  }
                }
              }
            }
          }
        },
        "responses": {
          "200": {
            "description": "user updated"
          },
          "404": {
            "description": "updated failed"
          }
        },
        "security": [
          {
            "bearerAuth": []
          }
        ]
      }
    }
  },
  "components": {
    "securitySchemes": {
      "bearerAuth": {
        "type": "http",
        "scheme": "bearer",
        "bearerFormat": "JWT"
      }
    }
  }
}